module gitlab.com/dbickford/doublestar-windows-bug

go 1.19

require (
	github.com/bmatcuk/doublestar/v3 v3.0.0
	github.com/bmatcuk/doublestar/v4 v4.4.0
	github.com/stretchr/testify v1.8.1
)

require (
	github.com/davecgh/go-spew v1.1.1 // indirect
	github.com/pmezard/go-difflib v1.0.0 // indirect
	gopkg.in/yaml.v3 v3.0.1 // indirect
)
